###############################################################
##                                                           ##
##      __  __    __                 _              __       ##
##     / / / / /\ \ \__ _ _ __ _ __ (_)_ __   __ _  \ \      ##
##    / /  \ \/  \/ / _` | '__| '_ \| | '_ \ / _` |  \ \     ##
##    \ \   \  /\  / (_| | |  | | | | | | | | (_| |  / /     ##
##     \_\   \/  \/ \__,_|_|  |_| |_|_|_| |_|\__, | /_/      ##
##                                           |___/           ##
##                                                           ##
## You are entering a private server.                        ##
## This access is restricted to authorized persons only.     ##
## We remind you that fraudulently accessing and remaining   ##
## in an automated system are punishable offenses.           ##
##                                                           ##
###############################################################
